…
Since the integer rankings were taken from the full data set, they are not contiguous (i.e. some integers between rankings never appear). To resolve this, i’ll recalibrate the rankings by matching each vector of ranks to the vector of its sorted unique values:

library(dplyr)
qswurus20 %>%
  group_by(year) %>%
  mutate_at(
    vars(starts_with("rk_")),
    ~ match(., sort(unique(as.numeric(.))))
  ) %>%
  ungroup() %>%
  print() -> qswurus20

## # A tibble: 38 x 13
##     year institution size  focus res     age status rk_academic rk_employer
##    <int> <chr>       <chr> <chr> <chr> <dbl> <chr>        <int>       <int>
##  1  2020 MASSACHUSE… M     CO    VH        5 B                3           2
##  2  2020 STANFORD U… L     FC    VH        5 B                2           3
##  3  2020 HARVARD UN… L     FC    VH        5 B                1           1
##  4  2020 CALIFORNIA… S     CO    VH        5 B               12          14
##  5  2020 UNIVERSITY… L     FC    VH        5 B                9          11
##  6  2020 PRINCETON … M     CO    VH        5 B                7           7
##  7  2020 CORNELL UN… L     FC    VH        5 B               11          13
##  8  2020 UNIVERSITY… L     FC    VH        5 B               14          12
##  9  2020 YALE UNIVE… L     FC    VH        5 B                6           4
## 10  2020 COLUMBIA U… L     FC    VH        5 B                8           8
## # … with 28 more rows, and 4 more variables: rk_ratio <int>,
## #   rk_citations <int>, rk_intl_faculty <int>, rk_intl_students <int>
…
