…
For purposes of validation and comparison in particular, we need to supplement empirical data sets, which reflect potentially interesting but unknown topological structure, with artificial data sets that have known, and often simple, intrinsic topology. Probably the most commonly used are simulated samples from a circle, which are straightforward to generate in R:

library(magrittr)
library(tibble)
library(dplyr)
library(ggplot2)
runif(n = 100) %>%
  enframe(name = NULL) %>%
  mutate(theta = 2*pi * value) %>%
  mutate(x = cos(theta), y = sin(theta)) %>%
  mutate_at(vars(x, y), funs(. + rnorm(n = length(.), sd = .1))) %>%
  print() -> circle_sample

## # A tibble: 100 x 4
##     value  theta      x        y
##     <dbl>  <dbl>  <dbl>    <dbl>
##  1 0.149  0.936   0.676  0.900  
##  2 0.137  0.863   0.486  0.772  
##  3 0.768  4.83    0.187 -1.05   
##  4 0.194  1.22    0.564  0.892  
##  5 0.0150 0.0941  0.995  0.0449 
##  6 0.829  5.21    0.447 -0.788  
##  7 0.591  3.71   -0.727 -0.561  
##  8 0.986  6.19    1.08  -0.00698
##  9 0.0802 0.504   0.750  0.490  
## 10 0.946  5.94    1.04  -0.276  
## # … with 90 more rows
…
